<svg width="500" height="308" viewBox="0 0 500 308" fill="none" xmlns="http://www.w3.org/2000/svg">
<path d="M253.051 306.074C271.356 277.493 287.091 271.392 304.432 266.896L315.672 263.684C338.151 257.262 357.419 249.234 366.089 216.157C392.101 218.726 415.864 207.166 429.994 185.008C437.38 173.447 441.876 158.996 441.876 144.224C441.876 129.131 437.059 114.038 426.141 102.477C432.884 91.8799 436.417 80.9614 436.417 70.043C436.417 61.6936 434.169 53.3442 429.994 45.316C416.186 19.6256 381.825 1.64227 346.179 1.64227C289.018 1.64227 259.474 47.2428 259.474 80.3192C259.474 98.3024 265.897 115.322 278.742 126.562C289.339 135.875 302.184 140.049 314.387 138.765C338.793 133.627 345.858 112.111 345.216 99.587C345.216 90.2742 342.004 85.7784 333.976 84.815C325.627 83.8516 321.452 90.5953 321.452 94.77C321.452 98.6236 323.058 102.156 328.517 102.798C331.407 103.762 329.159 108.257 326.59 111.79C320.489 121.103 314.708 125.277 300.258 121.745C296.083 120.139 292.55 117.891 289.339 115.322C279.384 106.652 275.531 93.4855 275.531 79.6769C275.531 58.1612 295.762 16.0931 345.858 16.0931C375.723 16.0931 405.267 29.9017 416.828 51.0963C420.039 57.1978 421.645 63.6204 421.645 70.043C421.645 79.0346 419.718 87.0629 415.543 97.6602C415.543 97.6602 413.617 102.156 412.332 104.404C414.901 106.652 417.149 109.221 417.149 109.221C426.141 118.213 430.958 130.737 430.958 144.866C430.958 157.069 427.425 169.914 420.681 179.87C403.019 207.808 375.723 207.487 365.126 206.202C365.126 206.202 361.593 205.881 357.74 205.239C356.776 208.771 356.134 212.304 356.134 212.304C348.748 241.848 333.976 247.949 312.461 254.051L311.818 254.372L301.542 257.262C287.091 261.115 264.612 271.392 252.409 284.237" stroke="white" stroke-opacity="0.5" stroke-width="2" stroke-linecap="round" stroke-linejoin="round"/>
<path d="M253.051 283.595C241.169 270.749 218.69 260.473 203.918 256.62L193.642 253.729L193 253.408C171.484 247.307 156.712 240.884 149.326 211.661C149.326 211.661 148.363 208.129 147.721 204.597C143.867 204.918 140.335 205.56 140.335 205.56C129.416 206.844 102.12 207.166 84.4579 179.227C78.0353 169.272 74.1818 156.427 74.1818 144.224C74.1818 130.094 78.9987 117.249 87.9904 108.579C87.9904 108.579 90.5594 106.331 92.8073 103.762C91.5228 101.835 89.596 97.0179 89.596 97.0179C85.4213 86.7417 83.4945 78.3924 83.4945 69.4007C83.4945 62.9781 85.1002 56.5555 88.3115 50.454C99.5511 29.2595 129.416 15.4509 159.281 15.4509C209.378 15.4509 229.609 57.5189 229.609 79.0346C229.609 93.1644 225.434 106.01 215.8 114.68C212.589 117.249 209.056 119.497 204.882 121.103C190.752 124.314 184.651 120.46 178.549 111.148C176.301 107.615 173.732 103.441 176.622 102.156C182.082 101.835 183.687 98.3024 183.687 94.1277C183.687 89.953 179.512 83.2093 171.163 84.1727C163.135 85.1361 159.924 89.6319 159.924 98.9447C159.281 111.469 166.346 132.984 190.752 138.123C202.955 139.728 216.121 135.232 226.397 125.92C239.243 114.68 245.665 97.6602 245.665 79.6769C245.665 46.6005 216.442 1 159.281 1C123.636 1 89.2749 18.9833 75.4663 44.6737C71.2916 52.702 69.0437 61.0513 69.0437 69.4007C69.0437 80.3191 72.5761 91.2376 79.3198 101.835C68.0803 113.396 63.5845 128.489 63.5845 143.582C63.5845 158.354 68.0803 173.126 75.4663 184.365C89.596 206.523 113.36 218.084 139.371 215.515C148.042 248.591 167.31 256.62 189.789 263.042L201.028 266.253C218.69 270.749 234.105 276.851 252.409 305.431" stroke="white" stroke-opacity="0.5" stroke-width="2" stroke-linecap="round" stroke-linejoin="round"/>
<path d="M253.051 272.034C239.242 257.583 222.222 251.482 206.808 247.307L196.532 244.417L195.89 244.096C174.695 237.994 164.74 232.856 158.96 209.413C158.96 209.413 156.391 198.816 155.106 193.999C149.968 194.641 139.371 195.926 139.371 195.926C130.379 197.211 107.579 197.211 93.128 174.089C87.6688 165.74 84.4575 154.821 84.4575 144.224C84.4575 133.627 87.6688 123.029 95.3759 115.322C95.3759 115.322 102.441 108.258 105.973 104.725C103.404 100.872 99.8718 93.1644 99.8718 93.1644C95.3759 84.815 94.7337 77.1079 95.3759 69.7219C95.6971 65.8683 96.6605 62.657 99.2295 57.8401C109.506 38.8934 133.269 27.3327 159.923 27.3327C204.56 27.3327 219.653 61.0514 219.653 79.998C219.653 91.5587 218.048 99.587 210.341 106.652C207.772 108.9 205.202 110.184 202.312 111.469C196.211 113.396 190.752 112.432 188.504 106.973C187.54 104.404 187.54 104.404 190.109 101.514C191.715 100.229 193 98.6236 193.642 96.6968C193.642 96.6968 192.357 100.229 193.321 103.762C194.284 109.221 203.597 105.367 205.845 103.441C212.91 97.0179 214.194 91.8799 214.194 81.6037C214.194 64.2627 199.101 33.113 157.354 33.113C132.306 33.113 114.001 42.4258 105.01 59.4457C99.5506 69.4007 99.8718 80.6403 104.046 91.2376L111.754 106.01L98.5872 119.176C84.7786 132.663 87.0266 156.748 96.6605 172.162C109.827 193.036 130.379 193.036 138.729 192.072L158.639 189.503L163.456 208.771C168.915 230.287 176.943 234.462 197.174 240.563L197.816 240.884L207.772 243.774C224.47 248.27 238.921 252.445 252.73 265.932C266.538 252.445 281.31 248.27 298.009 243.774L307.964 240.884L308.606 240.563C328.838 234.783 337.187 230.608 342.325 208.771L347.142 189.503L367.052 192.072C375.401 193.036 395.954 193.357 409.12 172.162C419.075 156.748 421.002 132.663 407.193 119.176L394.027 106.01L401.734 91.2376C405.909 80.6403 406.23 69.4007 400.771 59.4457C391.779 42.7469 373.796 33.113 348.427 33.113C306.68 33.113 291.586 64.2627 291.586 81.6037C291.586 91.8799 292.871 97.0179 299.936 103.441C302.184 105.688 311.818 109.221 312.46 103.762C313.423 100.229 312.139 96.6968 312.139 96.6968C312.781 98.6236 314.066 100.229 315.671 101.514C318.24 104.404 318.24 104.404 317.277 106.973C315.029 112.111 309.57 113.074 303.468 111.469C300.578 110.184 298.009 108.9 295.44 106.652C287.733 99.9081 286.127 91.8799 286.127 79.998C286.127 61.0514 301.22 27.3327 345.857 27.3327C372.511 27.3327 396.275 38.8934 406.551 57.8401C409.12 62.657 410.084 65.8683 410.405 69.7219C411.047 77.1079 410.084 84.4939 405.588 93.1644C405.588 93.1644 402.055 100.872 399.486 104.725C403.019 107.936 410.084 115.322 410.084 115.322C417.791 123.029 421.002 133.306 421.002 144.224C421.002 154.821 417.791 165.74 412.331 174.089C397.881 197.211 375.08 197.211 366.089 195.926C366.089 195.926 355.491 194.641 350.353 193.999C349.069 198.816 346.5 209.413 346.5 209.413C340.719 233.177 330.764 238.315 309.57 244.096L308.928 244.417L298.651 247.307C283.879 251.482 266.859 257.583 253.051 272.034Z" fill="white" fill-opacity="0.5"/>
<path d="M464.034 245.379C466.924 245.379 469.814 246.021 472.383 247.627C474.952 249.232 477.2 251.159 478.806 254.049C480.411 256.618 481.053 259.509 481.053 262.72C481.053 265.61 480.411 268.5 478.806 271.069C477.2 273.638 475.273 275.886 472.383 277.492C469.814 279.097 466.924 279.74 464.034 279.74C461.143 279.74 458.253 279.097 455.684 277.492C453.115 275.886 450.867 273.959 449.262 271.069C447.656 268.5 447.014 265.61 447.014 262.72C447.014 259.83 447.656 256.939 449.262 254.049C450.867 251.159 452.794 249.232 455.684 247.627C458.253 246.021 461.143 245.379 464.034 245.379ZM464.034 247.948C461.786 247.948 459.217 248.59 456.969 249.875C454.721 251.159 452.794 252.765 451.51 255.013C450.225 257.261 449.583 259.83 449.583 262.078C449.583 264.647 450.225 266.894 451.51 269.142C452.794 271.39 454.4 273.317 456.648 274.28C458.895 275.565 461.143 276.207 463.712 276.207C466.282 276.207 468.529 275.565 470.777 274.28C473.025 272.996 474.952 271.39 475.915 269.142C477.2 266.894 477.842 264.647 477.842 262.078C477.842 259.509 477.2 257.261 475.915 255.013C474.631 252.765 473.025 250.838 470.456 249.875C468.851 248.59 466.281 247.948 464.034 247.948ZM456.648 271.711V253.407H463.07C465.318 253.407 466.924 253.728 467.887 254.049C468.851 254.37 469.493 255.013 470.135 255.655C470.777 256.618 471.098 257.261 471.098 258.224C471.098 259.508 470.777 260.793 469.814 261.756C468.851 262.72 467.566 263.362 465.96 263.362C466.603 263.683 467.245 264.004 467.566 264.325C468.208 264.968 469.172 266.252 470.135 267.858L472.383 271.39H468.851L467.245 268.5C465.96 266.252 464.997 264.647 464.034 264.325C463.391 264.004 462.749 263.683 461.786 263.683H460.18V271.39H456.648V271.711ZM459.538 261.435H463.07C464.676 261.435 465.96 261.114 466.603 260.793C467.245 260.151 467.566 259.509 467.566 258.866C467.566 258.224 467.566 257.903 467.245 257.261C466.924 256.939 466.603 256.618 465.96 256.297C465.318 255.976 464.355 255.976 463.07 255.976H459.538V261.435Z" fill="white"/>
<mask id="path-5-inside-1" fill="white">
<path d="M446.371 52.494C445.087 53.4573 443.16 55.063 442.839 58.9166C442.197 61.4856 443.16 64.6969 444.766 67.2659C446.693 69.835 449.583 71.1195 453.115 70.7984C453.436 71.1195 453.436 71.4406 453.757 71.4406C452.473 72.7252 451.509 74.0097 451.188 75.2942C450.225 77.5421 450.546 80.4323 451.831 83.0013C453.115 84.9281 454.721 86.2126 456.648 86.2126C460.501 86.8549 463.07 84.2858 463.712 79.1478C463.712 78.5055 463.391 77.5421 462.749 77.5421C462.107 77.5421 461.464 77.8632 461.464 78.8266C460.822 83.6436 458.895 83.6436 457.29 83.3225C456.005 83.3225 455.042 82.6802 454.4 81.3957C453.436 79.79 453.436 77.8632 454.079 76.2576C454.4 74.9731 455.363 73.6885 456.969 72.7252C458.253 72.0829 459.859 71.4406 462.107 72.404C466.603 74.0097 469.814 76.8998 471.42 80.4323C471.741 81.0745 472.383 81.3957 473.025 81.0745C477.842 79.79 481.053 79.1478 484.907 82.0379C488.439 84.9281 491.008 90.7084 490.366 95.2043C490.045 97.1311 488.439 100.663 485.549 103.233C483.301 105.159 479.127 107.407 473.667 106.444C465.318 105.159 460.501 102.911 456.969 98.0944C456.648 97.7733 456.326 97.4522 456.005 97.4522C455.684 97.4522 455.363 97.7733 455.042 98.0944C452.152 102.59 447.656 103.875 442.197 102.269C440.27 101.948 437.701 99.7001 436.416 97.131C435.453 95.2043 435.453 92.9564 436.095 91.0296C436.737 89.4239 438.343 87.4971 440.27 87.176C442.197 86.8549 443.802 87.4971 445.729 89.1028C446.693 90.0662 446.693 91.0296 446.371 91.6718C446.05 92.9564 445.408 93.9198 444.445 94.2409C443.16 94.562 442.197 93.5986 441.233 92.9564C440.591 92.3141 439.949 92.3141 439.307 92.9564C438.985 93.5986 438.985 94.2409 439.307 94.8831C441.554 97.4522 443.802 97.1311 445.087 96.8099C447.014 96.1677 448.298 94.562 448.619 92.3141C448.94 90.3873 448.298 88.4605 447.014 87.176C443.802 84.2858 441.233 84.2858 439.307 84.607C436.416 85.2492 434.168 87.8183 433.205 90.0662C432.563 91.6718 432.563 93.5986 432.563 95.2043C429.351 95.2043 427.425 97.131 425.819 99.7001L424.213 102.59C421.644 107.407 418.754 112.866 412.01 111.261C408.157 110.297 405.588 108.371 404.624 105.802C403.661 103.875 403.661 101.627 404.624 98.7367C405.267 97.131 406.551 96.1677 407.515 96.1677C409.441 95.8465 411.689 96.4888 413.295 98.0944C414.258 98.7367 414.579 100.342 414.258 101.627C413.937 102.59 413.616 103.554 412.974 103.554C412.332 103.875 411.368 103.233 410.405 102.269C409.763 101.627 409.12 101.948 408.478 102.269C408.157 102.911 408.157 103.554 408.478 104.196C410.726 106.444 412.332 106.444 413.616 105.802C415.222 105.159 416.185 103.554 416.506 101.627C416.827 99.379 416.185 96.8099 414.58 95.5254C412.01 93.2775 409.12 92.3141 406.551 93.2775C404.303 93.9197 402.698 95.5254 402.055 97.4522C400.771 100.663 401.092 103.875 402.377 106.765C401.413 107.086 400.45 107.086 399.486 106.765C397.238 105.802 395.312 103.233 394.348 100.985C391.779 96.1677 389.21 93.5986 385.678 93.2775C382.788 93.2775 381.182 94.2409 379.255 95.8465L378.292 96.4888L376.686 98.0944C374.759 100.021 373.475 101.306 369.942 100.985C365.447 100.663 362.235 96.8099 359.024 91.993C354.528 84.9281 347.784 84.607 342.967 86.2126C339.435 87.4971 336.224 86.8549 333.012 84.607C333.334 84.607 333.334 84.9281 333.655 84.9281C337.187 85.2492 340.077 83.0013 342.004 81.0745L342.967 80.1111C346.179 77.5421 350.675 78.1844 355.813 82.0379C360.951 87.176 368.016 89.7451 371.869 90.3873C376.044 90.3873 379.576 87.4971 382.467 81.7168C382.788 80.4323 383.751 79.79 384.714 79.79C387.283 79.4689 390.816 81.0745 392.743 83.3225L393.706 84.607C395.954 87.176 397.56 88.7817 401.092 88.7817C403.34 88.7817 405.588 87.8183 407.194 85.8915C408.478 84.2858 409.441 82.0379 409.441 79.79C411.689 80.4323 413.937 80.1111 415.864 78.5055C417.791 77.221 419.075 74.6519 419.075 72.404C419.075 68.5505 417.47 65.9814 414.258 65.3392H413.937C409.12 65.6603 408.799 68.8716 409.12 70.4772C409.12 71.1195 409.763 71.7618 410.405 71.7618C411.047 71.7618 411.689 71.1195 411.689 70.4772V70.1561C411.689 69.5139 412.01 68.5505 414.258 68.5505C415.864 69.1927 416.827 70.4772 416.827 72.7252C416.827 73.6885 416.185 75.6153 414.58 76.5787C412.974 77.8632 411.047 77.8632 408.799 76.8998C406.23 75.6153 404.624 73.3674 403.982 70.7984C403.34 68.5505 403.982 65.9814 405.267 64.3758C407.194 61.8067 409.763 59.8799 412.653 59.5588C413.937 59.2377 416.185 59.5588 418.112 61.1645C418.433 62.7701 419.075 64.3758 420.039 65.3392C421.644 67.2659 423.892 67.9082 427.425 67.9082C429.994 67.9082 431.921 66.9448 432.884 64.6969C433.847 62.7701 434.168 60.2011 433.205 58.2743C432.563 56.3475 430.957 55.063 429.03 54.7419C427.104 54.4207 424.856 55.3841 423.892 57.3109C423.571 57.9532 423.892 58.9166 424.213 59.2377C424.856 59.5588 425.498 59.5588 425.819 58.9166C426.461 57.9532 427.425 57.632 428.388 57.632C429.03 57.632 429.994 57.9532 430.636 59.5588C430.957 60.5222 431.278 62.1279 430.315 63.4124C429.673 64.3758 428.709 65.3392 426.782 65.3392C424.213 65.3392 422.608 64.6969 421.323 63.4124C420.039 62.1279 419.718 60.2011 419.718 57.3109C419.718 54.7419 421.002 52.494 422.929 50.8883C426.782 47.677 433.526 47.3559 438.022 48.3193C441.554 48.3193 443.16 47.3559 443.802 46.0714C444.766 44.7868 445.408 42.5389 444.766 40.291C444.766 39.6487 444.445 39.3276 443.802 39.3276C441.554 38.6854 440.912 37.4008 440.27 35.7952L438.985 33.5473C438.664 32.905 438.022 32.905 437.701 33.2261C432.884 35.1529 426.782 34.1895 424.856 31.9416C422.287 28.7303 420.36 26.1613 422.287 22.3077C422.608 21.9866 422.608 21.3443 422.287 21.0232C421.965 20.7021 421.644 20.3809 421.323 20.3809C418.754 20.0598 416.185 17.8119 415.222 14.9217C413.937 12.0316 414.258 8.82025 415.864 6.57234C420.36 0.470868 428.067 -0.813651 434.49 3.68217C434.811 4.0033 435.453 4.0033 435.774 3.68217C440.912 1.11313 443.16 2.71878 446.371 6.57234C447.656 8.49912 447.335 10.4259 447.014 11.7104C446.371 13.9583 444.766 15.564 443.802 15.8851C442.197 16.2062 440.912 16.2062 439.949 15.564C438.985 14.9217 438.343 13.6372 438.343 11.7104C438.343 11.0682 437.701 10.4259 437.059 10.4259C436.416 10.4259 435.774 11.0682 436.095 12.0316C436.416 14.6006 437.38 16.8485 438.664 17.8119C440.27 19.0964 442.197 19.4175 444.445 18.7753C444.766 18.7753 444.766 18.7753 445.087 18.4542C445.087 19.4175 445.087 20.0598 445.408 21.0232C446.371 23.9134 449.262 26.4824 451.831 26.8035C454.4 27.1247 457.29 25.1979 457.932 22.95C458.253 22.3077 458.253 19.7387 455.363 18.4542C454.721 18.133 454.079 18.4542 453.757 19.0964C453.436 19.7387 453.757 20.7021 454.4 21.0232C455.363 21.3443 455.684 21.6655 455.363 22.3077C455.042 23.2711 453.436 24.5556 451.831 24.2345C450.225 23.9134 447.977 22.3077 447.335 20.0598C446.693 18.7753 447.014 17.4908 447.656 16.2062C449.262 13.9583 450.867 12.6738 453.115 12.3527C455.042 12.0316 456.969 12.9949 458.895 14.2795C459.217 20.3809 463.07 26.4824 468.529 26.8035C472.704 26.8035 475.594 24.2345 475.594 20.0598C475.594 16.5274 473.025 13.6372 469.814 13.3161C469.172 13.3161 468.529 13.9583 468.529 14.6006C468.529 15.2429 469.172 15.8851 469.814 15.8851C471.42 15.8851 473.025 17.4908 473.025 19.7387C473.025 22.3077 471.098 23.9134 468.208 23.5922C463.712 23.2711 460.822 17.8119 460.822 12.3527C460.822 6.25121 467.566 3.03991 472.383 3.36104C475.915 3.36104 481.053 4.64556 483.944 11.3893C484.265 12.0316 484.586 12.0316 484.907 12.3527C494.22 13.3161 500 19.0964 500 27.7669C500 30.336 499.679 34.8318 496.789 38.0431C493.899 40.9333 489.403 41.8967 483.301 40.9333C482.659 40.9333 482.017 41.2544 482.017 41.8967C480.09 50.8883 473.989 52.494 469.172 52.1728C463.712 51.8517 460.501 48.6404 459.859 42.5389C459.859 38.0431 462.107 36.7586 464.355 36.1163C465.639 35.7952 466.281 36.7586 466.603 37.0797C467.566 38.0431 467.887 39.6487 467.245 40.9333C466.924 41.5755 467.245 42.5389 467.887 42.5389C468.529 42.86 469.172 42.5389 469.493 41.5755C470.135 39.3276 469.814 36.7586 468.208 34.8318C466.924 33.2261 464.997 32.5839 463.391 32.905C459.217 33.8684 456.648 37.0797 456.969 42.2178C457.29 44.7868 457.932 46.7136 458.895 48.6404C457.29 51.5306 456.005 52.1728 452.794 51.5306C451.831 51.2094 448.619 51.2094 446.371 52.494ZM451.831 67.9082C449.583 67.9082 447.977 66.9448 446.693 65.3392C445.408 63.7335 444.766 61.4856 445.408 59.5588C445.729 57.3109 446.371 55.7053 447.656 55.063C449.262 54.0996 451.509 54.4207 453.115 55.063C451.188 58.5954 450.225 63.0913 451.831 67.9082Z"/>
</mask>
<path d="M446.371 52.494C445.087 53.4573 443.16 55.063 442.839 58.9166C442.197 61.4856 443.16 64.6969 444.766 67.2659C446.693 69.835 449.583 71.1195 453.115 70.7984C453.436 71.1195 453.436 71.4406 453.757 71.4406C452.473 72.7252 451.509 74.0097 451.188 75.2942C450.225 77.5421 450.546 80.4323 451.831 83.0013C453.115 84.9281 454.721 86.2126 456.648 86.2126C460.501 86.8549 463.07 84.2858 463.712 79.1478C463.712 78.5055 463.391 77.5421 462.749 77.5421C462.107 77.5421 461.464 77.8632 461.464 78.8266C460.822 83.6436 458.895 83.6436 457.29 83.3225C456.005 83.3225 455.042 82.6802 454.4 81.3957C453.436 79.79 453.436 77.8632 454.079 76.2576C454.4 74.9731 455.363 73.6885 456.969 72.7252C458.253 72.0829 459.859 71.4406 462.107 72.404C466.603 74.0097 469.814 76.8998 471.42 80.4323C471.741 81.0745 472.383 81.3957 473.025 81.0745C477.842 79.79 481.053 79.1478 484.907 82.0379C488.439 84.9281 491.008 90.7084 490.366 95.2043C490.045 97.1311 488.439 100.663 485.549 103.233C483.301 105.159 479.127 107.407 473.667 106.444C465.318 105.159 460.501 102.911 456.969 98.0944C456.648 97.7733 456.326 97.4522 456.005 97.4522C455.684 97.4522 455.363 97.7733 455.042 98.0944C452.152 102.59 447.656 103.875 442.197 102.269C440.27 101.948 437.701 99.7001 436.416 97.131C435.453 95.2043 435.453 92.9564 436.095 91.0296C436.737 89.4239 438.343 87.4971 440.27 87.176C442.197 86.8549 443.802 87.4971 445.729 89.1028C446.693 90.0662 446.693 91.0296 446.371 91.6718C446.05 92.9564 445.408 93.9198 444.445 94.2409C443.16 94.562 442.197 93.5986 441.233 92.9564C440.591 92.3141 439.949 92.3141 439.307 92.9564C438.985 93.5986 438.985 94.2409 439.307 94.8831C441.554 97.4522 443.802 97.1311 445.087 96.8099C447.014 96.1677 448.298 94.562 448.619 92.3141C448.94 90.3873 448.298 88.4605 447.014 87.176C443.802 84.2858 441.233 84.2858 439.307 84.607C436.416 85.2492 434.168 87.8183 433.205 90.0662C432.563 91.6718 432.563 93.5986 432.563 95.2043C429.351 95.2043 427.425 97.131 425.819 99.7001L424.213 102.59C421.644 107.407 418.754 112.866 412.01 111.261C408.157 110.297 405.588 108.371 404.624 105.802C403.661 103.875 403.661 101.627 404.624 98.7367C405.267 97.131 406.551 96.1677 407.515 96.1677C409.441 95.8465 411.689 96.4888 413.295 98.0944C414.258 98.7367 414.579 100.342 414.258 101.627C413.937 102.59 413.616 103.554 412.974 103.554C412.332 103.875 411.368 103.233 410.405 102.269C409.763 101.627 409.12 101.948 408.478 102.269C408.157 102.911 408.157 103.554 408.478 104.196C410.726 106.444 412.332 106.444 413.616 105.802C415.222 105.159 416.185 103.554 416.506 101.627C416.827 99.379 416.185 96.8099 414.58 95.5254C412.01 93.2775 409.12 92.3141 406.551 93.2775C404.303 93.9197 402.698 95.5254 402.055 97.4522C400.771 100.663 401.092 103.875 402.377 106.765C401.413 107.086 400.45 107.086 399.486 106.765C397.238 105.802 395.312 103.233 394.348 100.985C391.779 96.1677 389.21 93.5986 385.678 93.2775C382.788 93.2775 381.182 94.2409 379.255 95.8465L378.292 96.4888L376.686 98.0944C374.759 100.021 373.475 101.306 369.942 100.985C365.447 100.663 362.235 96.8099 359.024 91.993C354.528 84.9281 347.784 84.607 342.967 86.2126C339.435 87.4971 336.224 86.8549 333.012 84.607C333.334 84.607 333.334 84.9281 333.655 84.9281C337.187 85.2492 340.077 83.0013 342.004 81.0745L342.967 80.1111C346.179 77.5421 350.675 78.1844 355.813 82.0379C360.951 87.176 368.016 89.7451 371.869 90.3873C376.044 90.3873 379.576 87.4971 382.467 81.7168C382.788 80.4323 383.751 79.79 384.714 79.79C387.283 79.4689 390.816 81.0745 392.743 83.3225L393.706 84.607C395.954 87.176 397.56 88.7817 401.092 88.7817C403.34 88.7817 405.588 87.8183 407.194 85.8915C408.478 84.2858 409.441 82.0379 409.441 79.79C411.689 80.4323 413.937 80.1111 415.864 78.5055C417.791 77.221 419.075 74.6519 419.075 72.404C419.075 68.5505 417.47 65.9814 414.258 65.3392H413.937C409.12 65.6603 408.799 68.8716 409.12 70.4772C409.12 71.1195 409.763 71.7618 410.405 71.7618C411.047 71.7618 411.689 71.1195 411.689 70.4772V70.1561C411.689 69.5139 412.01 68.5505 414.258 68.5505C415.864 69.1927 416.827 70.4772 416.827 72.7252C416.827 73.6885 416.185 75.6153 414.58 76.5787C412.974 77.8632 411.047 77.8632 408.799 76.8998C406.23 75.6153 404.624 73.3674 403.982 70.7984C403.34 68.5505 403.982 65.9814 405.267 64.3758C407.194 61.8067 409.763 59.8799 412.653 59.5588C413.937 59.2377 416.185 59.5588 418.112 61.1645C418.433 62.7701 419.075 64.3758 420.039 65.3392C421.644 67.2659 423.892 67.9082 427.425 67.9082C429.994 67.9082 431.921 66.9448 432.884 64.6969C433.847 62.7701 434.168 60.2011 433.205 58.2743C432.563 56.3475 430.957 55.063 429.03 54.7419C427.104 54.4207 424.856 55.3841 423.892 57.3109C423.571 57.9532 423.892 58.9166 424.213 59.2377C424.856 59.5588 425.498 59.5588 425.819 58.9166C426.461 57.9532 427.425 57.632 428.388 57.632C429.03 57.632 429.994 57.9532 430.636 59.5588C430.957 60.5222 431.278 62.1279 430.315 63.4124C429.673 64.3758 428.709 65.3392 426.782 65.3392C424.213 65.3392 422.608 64.6969 421.323 63.4124C420.039 62.1279 419.718 60.2011 419.718 57.3109C419.718 54.7419 421.002 52.494 422.929 50.8883C426.782 47.677 433.526 47.3559 438.022 48.3193C441.554 48.3193 443.16 47.3559 443.802 46.0714C444.766 44.7868 445.408 42.5389 444.766 40.291C444.766 39.6487 444.445 39.3276 443.802 39.3276C441.554 38.6854 440.912 37.4008 440.27 35.7952L438.985 33.5473C438.664 32.905 438.022 32.905 437.701 33.2261C432.884 35.1529 426.782 34.1895 424.856 31.9416C422.287 28.7303 420.36 26.1613 422.287 22.3077C422.608 21.9866 422.608 21.3443 422.287 21.0232C421.965 20.7021 421.644 20.3809 421.323 20.3809C418.754 20.0598 416.185 17.8119 415.222 14.9217C413.937 12.0316 414.258 8.82025 415.864 6.57234C420.36 0.470868 428.067 -0.813651 434.49 3.68217C434.811 4.0033 435.453 4.0033 435.774 3.68217C440.912 1.11313 443.16 2.71878 446.371 6.57234C447.656 8.49912 447.335 10.4259 447.014 11.7104C446.371 13.9583 444.766 15.564 443.802 15.8851C442.197 16.2062 440.912 16.2062 439.949 15.564C438.985 14.9217 438.343 13.6372 438.343 11.7104C438.343 11.0682 437.701 10.4259 437.059 10.4259C436.416 10.4259 435.774 11.0682 436.095 12.0316C436.416 14.6006 437.38 16.8485 438.664 17.8119C440.27 19.0964 442.197 19.4175 444.445 18.7753C444.766 18.7753 444.766 18.7753 445.087 18.4542C445.087 19.4175 445.087 20.0598 445.408 21.0232C446.371 23.9134 449.262 26.4824 451.831 26.8035C454.4 27.1247 457.29 25.1979 457.932 22.95C458.253 22.3077 458.253 19.7387 455.363 18.4542C454.721 18.133 454.079 18.4542 453.757 19.0964C453.436 19.7387 453.757 20.7021 454.4 21.0232C455.363 21.3443 455.684 21.6655 455.363 22.3077C455.042 23.2711 453.436 24.5556 451.831 24.2345C450.225 23.9134 447.977 22.3077 447.335 20.0598C446.693 18.7753 447.014 17.4908 447.656 16.2062C449.262 13.9583 450.867 12.6738 453.115 12.3527C455.042 12.0316 456.969 12.9949 458.895 14.2795C459.217 20.3809 463.07 26.4824 468.529 26.8035C472.704 26.8035 475.594 24.2345 475.594 20.0598C475.594 16.5274 473.025 13.6372 469.814 13.3161C469.172 13.3161 468.529 13.9583 468.529 14.6006C468.529 15.2429 469.172 15.8851 469.814 15.8851C471.42 15.8851 473.025 17.4908 473.025 19.7387C473.025 22.3077 471.098 23.9134 468.208 23.5922C463.712 23.2711 460.822 17.8119 460.822 12.3527C460.822 6.25121 467.566 3.03991 472.383 3.36104C475.915 3.36104 481.053 4.64556 483.944 11.3893C484.265 12.0316 484.586 12.0316 484.907 12.3527C494.22 13.3161 500 19.0964 500 27.7669C500 30.336 499.679 34.8318 496.789 38.0431C493.899 40.9333 489.403 41.8967 483.301 40.9333C482.659 40.9333 482.017 41.2544 482.017 41.8967C480.09 50.8883 473.989 52.494 469.172 52.1728C463.712 51.8517 460.501 48.6404 459.859 42.5389C459.859 38.0431 462.107 36.7586 464.355 36.1163C465.639 35.7952 466.281 36.7586 466.603 37.0797C467.566 38.0431 467.887 39.6487 467.245 40.9333C466.924 41.5755 467.245 42.5389 467.887 42.5389C468.529 42.86 469.172 42.5389 469.493 41.5755C470.135 39.3276 469.814 36.7586 468.208 34.8318C466.924 33.2261 464.997 32.5839 463.391 32.905C459.217 33.8684 456.648 37.0797 456.969 42.2178C457.29 44.7868 457.932 46.7136 458.895 48.6404C457.29 51.5306 456.005 52.1728 452.794 51.5306C451.831 51.2094 448.619 51.2094 446.371 52.494ZM451.831 67.9082C449.583 67.9082 447.977 66.9448 446.693 65.3392C445.408 63.7335 444.766 61.4856 445.408 59.5588C445.729 57.3109 446.371 55.7053 447.656 55.063C449.262 54.0996 451.509 54.4207 453.115 55.063C451.188 58.5954 450.225 63.0913 451.831 67.9082Z" stroke="white" stroke-opacity="0.5" stroke-width="3" mask="url(#path-5-inside-1)"/>
<mask id="path-6-inside-2" fill="white">
<path d="M37.8664 127.36C35.3419 127.848 34.0797 127.36 33.07 125.163C33.8273 123.943 34.3322 122.478 34.5846 120.525C34.837 116.864 32.8175 114.423 29.2833 113.69C28.0211 113.446 26.5064 113.934 25.4967 115.155C24.2345 116.375 23.7296 118.328 24.4869 120.037C24.7394 120.525 25.2442 120.769 25.7491 120.769C26.254 120.525 26.5064 120.037 26.5064 119.549C26.254 118.572 26.5064 117.596 27.2638 116.864C27.5162 116.62 28.2735 115.887 29.2833 116.131C31.0504 116.375 33.07 117.596 33.07 120.769C32.5651 125.163 30.0406 127.36 25.4967 127.36C21.4576 127.36 16.4088 126.14 14.8941 119.549C14.8941 119.061 14.3892 118.816 13.8843 118.816C8.83548 119.305 5.30129 118.572 2.77687 116.375C0.252442 113.934 0 110.761 0 108.808C0.252442 102.462 4.79641 98.5561 12.6221 98.0678C13.127 98.0678 13.3794 97.8237 13.3794 97.5796C15.9039 92.4535 19.9429 91.9653 22.9723 91.9653C26.7589 91.9653 32.3126 94.4063 32.3126 98.8002C32.3126 102.706 29.7882 106.611 26.254 106.611C23.982 106.611 22.4674 105.391 22.4674 103.682C22.4674 102.218 23.982 100.997 25.2442 100.997C25.7491 100.997 26.254 100.509 26.254 100.021C26.254 99.5325 25.7491 99.0443 25.2442 99.0443C22.7198 99.0443 20.4478 101.241 20.4478 103.682C20.4478 106.611 22.9723 108.808 26.254 108.808C30.798 108.808 33.8273 104.414 34.3322 100.021C35.8468 99.0443 37.6139 98.5561 39.1286 98.8002C40.6432 99.0443 42.1579 100.021 43.4201 101.729C44.1774 102.462 44.1774 103.438 43.6725 104.414C42.9152 105.879 41.1481 107.1 39.8859 107.344C38.8761 107.588 37.3615 106.611 37.109 105.879C37.109 105.635 37.3615 105.391 38.1188 105.147C38.6237 104.903 38.8761 104.414 38.6237 103.926C38.3712 103.438 37.8664 103.194 37.3615 103.438C34.837 104.414 35.0895 106.123 35.0895 106.611C35.5944 108.32 38.1188 110.029 40.1383 109.785C42.4103 109.541 44.6823 107.832 45.4396 105.635C45.6921 105.147 45.6921 104.414 45.9445 103.682C46.1969 103.682 46.4494 103.926 46.4494 103.926C48.4689 104.414 49.9836 104.17 51.2458 103.438C52.508 102.706 53.2653 101.241 53.5178 99.2884C53.5178 98.8002 53.2653 98.312 52.508 98.0678C52.0031 98.0678 51.4982 98.3119 51.2458 98.8002C50.9934 100.265 50.4885 100.997 49.9836 101.485C49.2263 101.973 48.2165 101.973 46.7018 101.729C45.9445 101.485 44.6823 100.265 44.1774 98.556C43.925 97.5796 43.6725 96.115 44.6823 94.6504C47.2067 91.9653 49.2263 90.7448 53.2653 92.6976C53.5178 92.9417 54.0227 92.9417 54.2751 92.6976C59.5764 89.5243 65.8875 90.7448 69.4216 95.1386C70.6839 96.8473 70.9363 99.0443 69.9265 101.241C68.9168 103.438 66.8972 104.903 64.8777 105.147C64.6252 105.147 64.1204 105.391 64.1204 105.635C63.8679 105.879 63.8679 106.367 64.1204 106.611C65.635 109.297 64.1204 111.249 61.8484 113.446C60.3337 114.911 55.5373 115.643 51.4982 113.934C50.9934 113.69 50.4885 113.934 50.236 114.179L49.2263 115.643C48.4689 116.864 47.964 117.596 46.1969 118.084C45.9445 118.084 45.4396 118.572 45.4396 118.816C45.1872 120.525 45.4396 121.99 46.1969 122.966C46.9543 123.699 48.2165 124.675 50.9934 124.675C54.78 123.943 60.3337 124.431 63.6155 126.872C65.1301 128.092 66.1399 129.557 66.1399 131.51C66.1399 133.707 65.635 135.171 64.8777 136.148C63.8679 136.88 62.6057 137.368 60.3337 137.368C58.8191 137.368 57.8093 136.636 57.5569 135.904C57.052 134.927 57.052 133.707 57.3044 132.974C57.8093 131.998 58.5666 131.754 59.0715 131.754C60.0813 131.754 60.8386 131.998 61.3435 132.73C61.5959 133.218 62.3533 133.463 62.8581 132.974C63.363 132.73 63.6155 131.998 63.1106 131.51C62.3533 130.045 60.5862 129.313 59.0715 129.557C57.3044 129.801 56.0422 130.777 55.5373 131.998C54.78 133.463 54.78 135.171 55.7898 136.88C56.7995 138.345 58.3142 139.321 60.3337 139.321C63.1106 139.321 64.8777 138.833 66.3923 137.612C67.1497 136.88 67.6546 135.904 67.907 134.683C69.4216 133.463 71.1887 133.463 72.451 133.707C74.7229 133.951 76.9949 135.415 78.5096 137.368C79.5193 138.833 80.0242 140.542 79.5193 142.25C79.0145 144.203 77.4998 145.668 75.4803 146.644C73.7132 147.376 71.9461 147.132 70.6839 146.156C69.4216 145.424 68.9168 144.203 68.9168 143.227C68.9168 141.518 69.6741 140.542 71.1887 140.297C72.9558 140.542 73.2083 141.274 73.2083 141.518V141.762C73.2083 142.25 73.7132 142.738 74.2181 142.738C74.7229 142.738 75.2278 142.494 75.2278 141.762C75.2278 140.786 75.2278 138.345 71.1887 137.856H70.9363C68.4119 138.345 66.8972 140.053 66.8972 142.738C66.8972 144.447 67.907 146.156 69.6741 147.132C71.1887 148.109 72.9558 148.353 74.9754 148.109C74.9754 149.817 75.7327 151.282 76.7425 152.502C78.0047 153.967 80.0242 154.944 81.7913 154.944C84.8206 154.944 86.0828 153.723 87.8499 152.014L88.6073 151.282C90.1219 149.573 93.1512 148.597 95.1708 148.841C96.1805 149.085 96.6854 149.573 97.1903 150.306C99.7147 154.699 102.492 157.14 106.026 157.14C109.308 156.896 114.861 155.188 119.405 151.526C123.697 148.841 127.231 148.353 130.008 150.55L130.765 151.282C132.28 152.747 134.552 154.455 137.581 154.211C137.834 154.211 137.834 153.967 138.086 153.967C135.562 155.676 133.037 155.92 130.008 154.944C125.969 153.479 120.415 153.723 116.628 158.605C114.104 161.778 111.327 164.708 107.54 164.708C104.764 164.708 103.754 163.731 101.987 162.267C101.987 162.267 100.724 161.29 100.724 161.046L99.9672 160.558C98.4525 159.581 96.9379 158.605 94.6659 158.605C91.889 158.849 89.617 160.558 87.5975 163.975C86.8402 165.44 85.3255 167.393 83.306 168.125C82.5487 168.369 81.7913 168.369 81.034 168.125C82.0438 166.172 82.2962 163.975 81.2864 161.534C80.5291 159.826 79.2669 158.605 77.4998 158.361C75.2278 157.873 72.9558 158.361 70.9363 159.826C69.6741 160.802 69.1692 162.511 69.4216 164.219C69.6741 165.684 70.4314 166.904 71.6936 167.393C72.7034 167.637 73.9656 167.881 75.9851 166.172C76.49 165.928 76.49 165.196 76.2376 164.708C75.9851 164.219 75.2278 164.219 74.7229 164.708C73.9656 165.44 73.2083 165.684 72.7034 165.44C72.1985 165.196 71.6936 164.708 71.6936 163.975C71.4412 162.999 71.9461 162.022 72.451 161.534C73.9656 160.558 75.7327 160.07 77.2474 160.314C78.0047 160.558 79.0145 161.046 79.5193 162.267C80.2767 164.219 80.2767 165.928 79.5193 167.393C78.5096 169.101 76.49 170.322 73.2083 171.054C67.6546 172.031 65.3826 167.881 63.1106 164.219L61.8484 162.267C60.3337 160.314 59.0715 159.093 56.2946 158.849C56.5471 157.629 56.2946 156.408 55.7898 155.188C55.0324 153.479 53.2653 151.526 50.7409 151.038C49.2263 150.55 46.9543 150.55 44.4299 152.502C43.1676 153.479 42.6628 154.699 43.1676 156.164C43.4201 157.629 44.6823 159.093 45.9445 159.581C46.7018 159.826 48.7214 160.07 50.7409 158.361C51.2458 157.873 51.2458 157.385 50.7409 156.896C50.236 156.408 49.7311 156.408 49.2263 156.896C48.4689 157.385 47.7116 158.117 46.7018 157.873C45.9445 157.629 45.4396 156.896 45.1872 155.92C45.1872 155.432 45.1872 154.699 45.9445 153.967C47.4592 152.747 48.9738 152.503 50.4885 152.747C52.2556 153.235 53.5178 154.699 54.0227 155.676C54.78 157.14 54.5275 158.605 53.7702 160.07C52.7605 162.022 50.4885 163.487 48.9738 163.731C44.1774 164.708 40.6432 163.731 38.3712 160.558C38.1188 160.314 37.8664 160.07 37.6139 160.07C37.3615 160.07 37.109 160.07 36.8566 160.314C33.8273 163.731 30.0406 165.196 23.2247 165.684C18.6807 166.172 15.399 164.463 13.3794 162.999C11.1075 161.046 9.59281 158.605 9.34037 157.14C8.83548 153.723 10.855 149.817 13.8843 147.865C17.1661 145.912 19.9429 146.4 23.7296 147.62C24.2345 147.865 24.7394 147.62 24.9918 147.132C26.254 144.447 28.7784 142.494 32.5651 141.518C34.3322 141.03 35.8468 141.274 36.8566 142.006C38.1188 142.738 38.8761 143.715 39.1286 144.691C39.6335 145.912 39.6335 147.376 38.6237 148.597C38.1188 149.329 37.109 149.817 36.0993 149.817C34.837 150.061 33.07 149.817 32.5651 146.4C32.5651 145.912 32.0602 145.424 31.3029 145.424C30.798 145.424 30.2931 145.912 30.2931 146.644C30.798 150.306 32.8175 152.258 36.0993 151.77C37.6139 151.77 39.1286 151.038 40.1383 149.573C41.4005 147.865 41.4005 145.668 40.6432 143.959C40.3908 142.983 39.6335 141.762 38.6237 141.03C38.8761 140.786 38.8761 140.542 39.1286 140.542C41.9054 140.786 44.1774 140.053 45.9445 138.345C47.4592 136.636 48.2165 134.439 47.7116 132.486C47.2067 129.801 45.9445 128.336 44.6823 127.604C42.6628 126.628 40.1383 126.384 37.8664 127.36ZM38.8761 129.069C40.3908 128.581 42.1579 128.581 43.4201 129.313C44.4299 130.045 45.1872 131.022 45.4396 132.73C45.6921 134.195 45.1872 135.904 44.1774 136.88C43.1676 138.101 41.653 138.589 39.8859 138.589C41.1481 135.415 40.3908 131.998 38.8761 129.069Z"/>
</mask>
<path d="M37.8664 127.36C35.3419 127.848 34.0797 127.36 33.07 125.163C33.8273 123.943 34.3322 122.478 34.5846 120.525C34.837 116.864 32.8175 114.423 29.2833 113.69C28.0211 113.446 26.5064 113.934 25.4967 115.155C24.2345 116.375 23.7296 118.328 24.4869 120.037C24.7394 120.525 25.2442 120.769 25.7491 120.769C26.254 120.525 26.5064 120.037 26.5064 119.549C26.254 118.572 26.5064 117.596 27.2638 116.864C27.5162 116.62 28.2735 115.887 29.2833 116.131C31.0504 116.375 33.07 117.596 33.07 120.769C32.5651 125.163 30.0406 127.36 25.4967 127.36C21.4576 127.36 16.4088 126.14 14.8941 119.549C14.8941 119.061 14.3892 118.816 13.8843 118.816C8.83548 119.305 5.30129 118.572 2.77687 116.375C0.252442 113.934 0 110.761 0 108.808C0.252442 102.462 4.79641 98.5561 12.6221 98.0678C13.127 98.0678 13.3794 97.8237 13.3794 97.5796C15.9039 92.4535 19.9429 91.9653 22.9723 91.9653C26.7589 91.9653 32.3126 94.4063 32.3126 98.8002C32.3126 102.706 29.7882 106.611 26.254 106.611C23.982 106.611 22.4674 105.391 22.4674 103.682C22.4674 102.218 23.982 100.997 25.2442 100.997C25.7491 100.997 26.254 100.509 26.254 100.021C26.254 99.5325 25.7491 99.0443 25.2442 99.0443C22.7198 99.0443 20.4478 101.241 20.4478 103.682C20.4478 106.611 22.9723 108.808 26.254 108.808C30.798 108.808 33.8273 104.414 34.3322 100.021C35.8468 99.0443 37.6139 98.5561 39.1286 98.8002C40.6432 99.0443 42.1579 100.021 43.4201 101.729C44.1774 102.462 44.1774 103.438 43.6725 104.414C42.9152 105.879 41.1481 107.1 39.8859 107.344C38.8761 107.588 37.3615 106.611 37.109 105.879C37.109 105.635 37.3615 105.391 38.1188 105.147C38.6237 104.903 38.8761 104.414 38.6237 103.926C38.3712 103.438 37.8664 103.194 37.3615 103.438C34.837 104.414 35.0895 106.123 35.0895 106.611C35.5944 108.32 38.1188 110.029 40.1383 109.785C42.4103 109.541 44.6823 107.832 45.4396 105.635C45.6921 105.147 45.6921 104.414 45.9445 103.682C46.1969 103.682 46.4494 103.926 46.4494 103.926C48.4689 104.414 49.9836 104.17 51.2458 103.438C52.508 102.706 53.2653 101.241 53.5178 99.2884C53.5178 98.8002 53.2653 98.312 52.508 98.0678C52.0031 98.0678 51.4982 98.3119 51.2458 98.8002C50.9934 100.265 50.4885 100.997 49.9836 101.485C49.2263 101.973 48.2165 101.973 46.7018 101.729C45.9445 101.485 44.6823 100.265 44.1774 98.556C43.925 97.5796 43.6725 96.115 44.6823 94.6504C47.2067 91.9653 49.2263 90.7448 53.2653 92.6976C53.5178 92.9417 54.0227 92.9417 54.2751 92.6976C59.5764 89.5243 65.8875 90.7448 69.4216 95.1386C70.6839 96.8473 70.9363 99.0443 69.9265 101.241C68.9168 103.438 66.8972 104.903 64.8777 105.147C64.6252 105.147 64.1204 105.391 64.1204 105.635C63.8679 105.879 63.8679 106.367 64.1204 106.611C65.635 109.297 64.1204 111.249 61.8484 113.446C60.3337 114.911 55.5373 115.643 51.4982 113.934C50.9934 113.69 50.4885 113.934 50.236 114.179L49.2263 115.643C48.4689 116.864 47.964 117.596 46.1969 118.084C45.9445 118.084 45.4396 118.572 45.4396 118.816C45.1872 120.525 45.4396 121.99 46.1969 122.966C46.9543 123.699 48.2165 124.675 50.9934 124.675C54.78 123.943 60.3337 124.431 63.6155 126.872C65.1301 128.092 66.1399 129.557 66.1399 131.51C66.1399 133.707 65.635 135.171 64.8777 136.148C63.8679 136.88 62.6057 137.368 60.3337 137.368C58.8191 137.368 57.8093 136.636 57.5569 135.904C57.052 134.927 57.052 133.707 57.3044 132.974C57.8093 131.998 58.5666 131.754 59.0715 131.754C60.0813 131.754 60.8386 131.998 61.3435 132.73C61.5959 133.218 62.3533 133.463 62.8581 132.974C63.363 132.73 63.6155 131.998 63.1106 131.51C62.3533 130.045 60.5862 129.313 59.0715 129.557C57.3044 129.801 56.0422 130.777 55.5373 131.998C54.78 133.463 54.78 135.171 55.7898 136.88C56.7995 138.345 58.3142 139.321 60.3337 139.321C63.1106 139.321 64.8777 138.833 66.3923 137.612C67.1497 136.88 67.6546 135.904 67.907 134.683C69.4216 133.463 71.1887 133.463 72.451 133.707C74.7229 133.951 76.9949 135.415 78.5096 137.368C79.5193 138.833 80.0242 140.542 79.5193 142.25C79.0145 144.203 77.4998 145.668 75.4803 146.644C73.7132 147.376 71.9461 147.132 70.6839 146.156C69.4216 145.424 68.9168 144.203 68.9168 143.227C68.9168 141.518 69.6741 140.542 71.1887 140.297C72.9558 140.542 73.2083 141.274 73.2083 141.518V141.762C73.2083 142.25 73.7132 142.738 74.2181 142.738C74.7229 142.738 75.2278 142.494 75.2278 141.762C75.2278 140.786 75.2278 138.345 71.1887 137.856H70.9363C68.4119 138.345 66.8972 140.053 66.8972 142.738C66.8972 144.447 67.907 146.156 69.6741 147.132C71.1887 148.109 72.9558 148.353 74.9754 148.109C74.9754 149.817 75.7327 151.282 76.7425 152.502C78.0047 153.967 80.0242 154.944 81.7913 154.944C84.8206 154.944 86.0828 153.723 87.8499 152.014L88.6073 151.282C90.1219 149.573 93.1512 148.597 95.1708 148.841C96.1805 149.085 96.6854 149.573 97.1903 150.306C99.7147 154.699 102.492 157.14 106.026 157.14C109.308 156.896 114.861 155.188 119.405 151.526C123.697 148.841 127.231 148.353 130.008 150.55L130.765 151.282C132.28 152.747 134.552 154.455 137.581 154.211C137.834 154.211 137.834 153.967 138.086 153.967C135.562 155.676 133.037 155.92 130.008 154.944C125.969 153.479 120.415 153.723 116.628 158.605C114.104 161.778 111.327 164.708 107.54 164.708C104.764 164.708 103.754 163.731 101.987 162.267C101.987 162.267 100.724 161.29 100.724 161.046L99.9672 160.558C98.4525 159.581 96.9379 158.605 94.6659 158.605C91.889 158.849 89.617 160.558 87.5975 163.975C86.8402 165.44 85.3255 167.393 83.306 168.125C82.5487 168.369 81.7913 168.369 81.034 168.125C82.0438 166.172 82.2962 163.975 81.2864 161.534C80.5291 159.826 79.2669 158.605 77.4998 158.361C75.2278 157.873 72.9558 158.361 70.9363 159.826C69.6741 160.802 69.1692 162.511 69.4216 164.219C69.6741 165.684 70.4314 166.904 71.6936 167.393C72.7034 167.637 73.9656 167.881 75.9851 166.172C76.49 165.928 76.49 165.196 76.2376 164.708C75.9851 164.219 75.2278 164.219 74.7229 164.708C73.9656 165.44 73.2083 165.684 72.7034 165.44C72.1985 165.196 71.6936 164.708 71.6936 163.975C71.4412 162.999 71.9461 162.022 72.451 161.534C73.9656 160.558 75.7327 160.07 77.2474 160.314C78.0047 160.558 79.0145 161.046 79.5193 162.267C80.2767 164.219 80.2767 165.928 79.5193 167.393C78.5096 169.101 76.49 170.322 73.2083 171.054C67.6546 172.031 65.3826 167.881 63.1106 164.219L61.8484 162.267C60.3337 160.314 59.0715 159.093 56.2946 158.849C56.5471 157.629 56.2946 156.408 55.7898 155.188C55.0324 153.479 53.2653 151.526 50.7409 151.038C49.2263 150.55 46.9543 150.55 44.4299 152.502C43.1676 153.479 42.6628 154.699 43.1676 156.164C43.4201 157.629 44.6823 159.093 45.9445 159.581C46.7018 159.826 48.7214 160.07 50.7409 158.361C51.2458 157.873 51.2458 157.385 50.7409 156.896C50.236 156.408 49.7311 156.408 49.2263 156.896C48.4689 157.385 47.7116 158.117 46.7018 157.873C45.9445 157.629 45.4396 156.896 45.1872 155.92C45.1872 155.432 45.1872 154.699 45.9445 153.967C47.4592 152.747 48.9738 152.503 50.4885 152.747C52.2556 153.235 53.5178 154.699 54.0227 155.676C54.78 157.14 54.5275 158.605 53.7702 160.07C52.7605 162.022 50.4885 163.487 48.9738 163.731C44.1774 164.708 40.6432 163.731 38.3712 160.558C38.1188 160.314 37.8664 160.07 37.6139 160.07C37.3615 160.07 37.109 160.07 36.8566 160.314C33.8273 163.731 30.0406 165.196 23.2247 165.684C18.6807 166.172 15.399 164.463 13.3794 162.999C11.1075 161.046 9.59281 158.605 9.34037 157.14C8.83548 153.723 10.855 149.817 13.8843 147.865C17.1661 145.912 19.9429 146.4 23.7296 147.62C24.2345 147.865 24.7394 147.62 24.9918 147.132C26.254 144.447 28.7784 142.494 32.5651 141.518C34.3322 141.03 35.8468 141.274 36.8566 142.006C38.1188 142.738 38.8761 143.715 39.1286 144.691C39.6335 145.912 39.6335 147.376 38.6237 148.597C38.1188 149.329 37.109 149.817 36.0993 149.817C34.837 150.061 33.07 149.817 32.5651 146.4C32.5651 145.912 32.0602 145.424 31.3029 145.424C30.798 145.424 30.2931 145.912 30.2931 146.644C30.798 150.306 32.8175 152.258 36.0993 151.77C37.6139 151.77 39.1286 151.038 40.1383 149.573C41.4005 147.865 41.4005 145.668 40.6432 143.959C40.3908 142.983 39.6335 141.762 38.6237 141.03C38.8761 140.786 38.8761 140.542 39.1286 140.542C41.9054 140.786 44.1774 140.053 45.9445 138.345C47.4592 136.636 48.2165 134.439 47.7116 132.486C47.2067 129.801 45.9445 128.336 44.6823 127.604C42.6628 126.628 40.1383 126.384 37.8664 127.36ZM38.8761 129.069C40.3908 128.581 42.1579 128.581 43.4201 129.313C44.4299 130.045 45.1872 131.022 45.4396 132.73C45.6921 134.195 45.1872 135.904 44.1774 136.88C43.1676 138.101 41.653 138.589 39.8859 138.589C41.1481 135.415 40.3908 131.998 38.8761 129.069Z" stroke="white" stroke-opacity="0.5" stroke-width="3" mask="url(#path-6-inside-2)"/>
<path d="M286.448 289.695L280.989 284.236L283.558 281.667C287.091 277.813 289.339 272.675 289.339 267.216C289.339 261.757 287.412 256.619 283.558 252.765L280.989 250.196L286.448 244.737L289.339 247.306C293.192 250.838 298.33 253.086 303.79 253.086C309.249 253.086 314.387 251.159 318.24 247.306L320.809 244.737L326.269 250.196L323.7 252.765C320.167 256.619 317.919 261.757 317.919 267.216C317.919 272.675 319.846 277.813 323.7 281.667L326.269 284.236L323.7 286.805C323.7 287.126 323.378 287.126 323.378 287.126L320.809 289.374L318.24 287.126C314.387 283.594 309.249 281.346 303.79 281.346C298.33 281.346 293.192 283.272 289.339 287.126L286.448 289.695ZM295.761 259.188C296.404 261.757 296.725 264.326 296.725 267.216C296.725 269.785 296.404 272.675 295.761 275.244C300.899 273.639 306.359 273.639 311.497 275.244C310.854 272.675 310.533 270.106 310.533 267.216C310.533 264.647 310.854 261.757 311.497 259.188C306.359 260.793 300.899 260.793 295.761 259.188Z" fill="white"/>
<path d="M303.79 260.151C296.404 260.151 289.66 257.582 284.201 252.444L281.311 249.554L284.201 246.664C289.66 241.526 296.404 238.635 303.79 238.635C311.176 238.635 318.241 241.526 323.379 246.664L326.269 249.554L323.379 252.765C317.919 257.582 310.855 260.151 303.79 260.151ZM292.871 249.554C299.294 253.407 307.643 253.407 314.387 249.554C307.964 245.7 299.294 245.7 292.871 249.554Z" fill="white"/>
<path d="M286.448 289.695L283.558 286.805C278.42 281.346 275.53 274.602 275.53 267.216C275.53 259.83 278.42 252.765 283.558 247.627L286.448 244.737L289.338 247.627C294.155 253.086 297.045 260.151 297.045 267.216C297.045 274.602 294.476 281.346 289.338 286.805L286.448 289.695ZM286.127 256.298C284.2 259.509 283.237 263.041 283.237 266.895C283.237 270.748 284.2 274.281 286.127 277.492C288.054 274.281 289.017 270.427 289.017 266.895C289.017 263.362 288.054 259.509 286.127 256.298Z" fill="white"/>
<path d="M303.79 295.154C296.404 295.154 289.339 292.264 284.201 287.126L281.311 284.236L284.201 281.346C289.66 276.529 296.725 273.639 303.79 273.639C311.176 273.639 317.919 276.208 323.379 281.346L326.269 284.236L323.379 287.126C317.919 292.264 311.176 295.154 303.79 295.154ZM292.871 284.557C299.294 288.411 307.964 288.411 314.387 284.557C307.964 280.703 299.294 280.703 292.871 284.557Z" fill="white"/>
<path d="M320.809 289.695L317.919 286.805C313.102 281.346 310.212 274.281 310.212 267.216C310.212 259.83 312.781 253.086 317.919 247.627L320.809 244.737L323.699 247.627C328.837 253.086 331.727 259.83 331.727 267.216C331.727 274.602 328.837 281.667 323.699 286.805L320.809 289.695ZM321.13 256.298C319.203 259.509 318.24 263.362 318.24 266.895C318.24 270.748 319.203 274.281 321.13 277.492C323.057 274.281 324.02 270.748 324.02 266.895C324.02 263.362 323.057 259.509 321.13 256.298Z" fill="white"/>
<path d="M303.789 295.475C288.054 295.475 275.53 282.63 275.53 267.216C275.53 251.481 288.375 238.956 303.789 238.956C319.525 238.956 332.049 251.802 332.049 267.216C332.049 282.63 319.203 295.475 303.789 295.475ZM303.789 246.985C292.55 246.985 283.558 255.976 283.558 267.216C283.558 278.455 292.55 287.447 303.789 287.447C315.029 287.447 324.02 278.455 324.02 267.216C323.699 255.976 314.708 246.985 303.789 246.985Z" fill="white"/>
<path d="M175.979 50.4531C179.512 52.701 181.438 54.9489 181.438 57.1968C181.438 59.4447 178.869 61.6926 174.695 64.2617C172.768 65.2251 170.841 66.1885 169.235 67.1518C169.235 67.473 169.235 67.473 169.557 67.473C171.162 70.042 172.447 73.5745 172.768 78.3914C174.695 78.0703 176.621 77.7491 178.548 77.7491C185.613 78.0703 189.145 80.3182 189.145 85.1351C188.824 88.0253 187.54 88.9887 184.65 88.9887C180.475 88.9887 176.621 89.3098 172.768 89.631C172.447 91.2366 172.447 92.5211 172.447 93.8057C180.475 95.4113 185.613 97.3381 187.861 99.2649C190.751 102.155 192.036 104.724 192.036 106.972C192.036 107.935 191.072 108.257 189.145 108.257C185.613 108.257 179.512 105.687 171.483 100.549C171.162 102.476 170.841 104.403 170.841 106.33C169.878 111.147 167.951 115 166.024 117.569C165.061 118.854 164.097 119.175 162.813 119.175C161.207 119.175 159.923 118.533 159.602 117.248C158.638 115.964 158.317 109.541 157.996 97.3381C154.142 103.118 149.968 107.935 145.793 111.468C140.013 116.285 134.232 119.496 128.773 120.781C127.81 120.781 127.489 120.459 127.489 120.138C133.59 115.321 138.407 109.862 142.582 103.761C144.508 100.871 146.435 97.9803 147.72 95.0902C147.399 95.4113 147.077 95.4113 147.077 95.4113C140.976 97.3381 135.838 98.6226 131.342 98.9437C128.773 98.9437 126.846 98.3015 124.919 97.3381C123.314 96.6958 122.029 96.0536 122.029 95.0902C122.029 94.4479 122.672 94.1268 123.635 94.1268C129.094 94.1268 137.122 91.5577 148.041 86.4197C151.573 85.1351 154.463 83.5295 157.675 82.5661V80.9604C157.675 79.3548 157.354 76.7858 156.711 73.5745C147.399 77.7491 140.334 79.9971 136.159 79.9971C132.948 79.9971 131.663 79.6759 131.663 78.7125C142.582 69.7209 151.573 62.0138 158.317 55.9123C162.813 51.0953 166.024 48.5263 167.309 48.5263C169.878 47.884 172.768 48.8474 175.979 50.4531ZM191.393 120.138C191.393 122.386 188.824 125.598 183.686 129.451C182.081 130.736 180.154 132.341 178.227 133.305C177.906 142.939 176.3 150.967 173.089 158.032C172.126 159.958 171.483 161.564 170.52 162.849C173.731 164.775 176.621 166.702 179.19 169.271C180.796 170.877 182.402 172.161 183.365 173.446C189.145 167.666 194.926 159.316 200.706 148.719C207.129 137.479 210.661 129.13 210.661 123.35C210.661 121.102 209.698 118.533 208.092 116.285C207.45 116.606 207.129 116.927 206.487 116.927C204.56 116.927 202.954 115.642 201.991 112.431C200.706 109.541 199.101 102.797 197.816 91.5577C197.174 88.3464 195.889 84.814 193.962 81.6027C192.999 79.9971 192.357 78.3914 192.357 77.1069C192.357 74.859 193.641 73.5745 196.21 73.5745C196.853 73.5745 197.495 73.8956 198.137 73.8956C203.596 69.0786 207.771 63.9405 211.303 58.1602C214.836 52.3799 216.763 47.2418 216.763 43.7093C216.763 42.4248 217.084 41.7826 218.047 41.7826C220.937 41.7826 223.828 42.746 226.718 44.9939C229.608 47.2418 230.892 49.4897 230.892 52.0587C230.892 54.3066 229.608 56.5546 227.681 58.8025C220.616 65.5462 214.194 70.3631 208.734 72.9322C210.019 72.6111 211.625 71.9688 212.909 71.6477C226.718 67.7941 235.709 65.8673 240.205 65.5462C253.693 65.5462 260.436 71.0054 261.079 81.6027C261.079 87.0619 260.436 93.4845 259.152 100.549C257.546 106.972 255.619 111.789 253.05 115.642C251.445 118.533 249.518 119.817 247.591 119.817C243.095 119.496 240.526 116.927 240.205 112.752C234.104 113.073 228.002 113.395 221.901 113.716C217.405 114.037 214.194 114.037 212.267 114.037C213.873 114.679 215.478 115.642 217.084 116.606C218.047 117.569 218.689 118.854 219.332 120.138C220.295 118.854 221.901 117.89 224.149 117.89C226.075 117.89 228.002 118.854 229.929 120.781C231.535 122.707 232.177 125.276 232.177 128.809C232.177 130.414 231.535 132.662 230.892 134.589C228.966 139.085 227.681 144.223 226.718 149.682C225.754 156.105 225.433 161.564 225.433 166.06C225.433 173.125 230.571 176.657 240.847 176.657C248.233 176.657 253.693 174.73 258.188 170.235C262.363 166.381 264.611 161.885 264.611 156.426L263.969 152.251C259.152 152.572 255.941 152.894 254.335 153.536C253.372 154.178 252.729 154.499 252.087 154.499V153.857C253.693 151.609 254.977 149.361 254.977 147.756C254.977 146.792 254.335 145.508 253.372 143.902C250.16 146.792 245.664 150.003 239.884 153.215C236.352 155.142 234.425 156.426 233.461 156.426C230.25 156.426 228.323 153.536 228.002 147.756C228.002 145.829 228.644 144.865 229.608 144.544C232.498 138.764 234.746 133.626 236.352 129.451C237.636 125.598 238.6 123.671 239.242 123.671C240.847 123.671 242.774 124.313 244.701 125.276C246.628 126.561 247.912 128.167 247.912 129.772C247.912 131.057 247.27 132.341 246.628 133.626C251.766 133.626 256.583 135.231 260.758 138.122C265.253 141.333 267.501 144.865 267.501 149.04C267.501 150.325 267.18 150.967 266.859 150.967C267.18 151.288 267.18 151.288 267.18 151.288C273.924 157.711 277.456 163.812 277.456 169.913C277.456 175.694 274.566 180.19 269.428 183.722C264.932 186.933 257.867 188.539 248.555 188.539C235.709 188.539 227.681 187.255 223.828 184.364C219.011 180.832 216.763 175.694 216.763 167.666C216.763 163.812 217.405 157.389 218.689 147.756C219.974 138.443 220.937 132.984 220.937 131.378C220.937 130.414 220.295 129.13 219.332 127.845C218.689 132.662 216.12 139.406 211.303 148.077C203.917 160.922 196.853 169.592 189.788 174.409C187.861 175.694 185.934 176.657 184.329 177.299C184.65 177.942 184.65 178.905 184.65 179.547C184.65 184.364 182.723 186.933 179.19 186.933C176.943 186.933 174.695 185.007 171.804 180.832C168.593 177.621 166.024 175.052 163.455 172.483C161.849 174.088 160.244 175.694 158.959 176.657C153.5 180.19 146.756 182.759 138.407 184.043C137.444 184.043 137.122 183.722 137.122 183.401C145.151 177.942 151.252 172.483 155.748 166.381C153.5 165.097 151.573 164.133 149.646 163.17C145.793 162.206 143.866 159.958 143.866 156.105C144.187 155.142 144.83 153.857 145.151 152.894C137.122 157.068 131.984 158.995 129.736 158.995C126.204 158.995 123.956 155.784 123.635 149.04C123.635 147.113 124.277 145.829 125.562 145.508C129.415 145.508 133.269 144.865 136.48 143.581C139.37 142.617 143.224 141.012 148.683 138.764C149.004 137.158 149.004 135.231 149.004 133.947C149.004 132.341 148.362 128.488 147.72 123.35C147.72 122.065 148.041 121.423 149.004 121.423C151.573 121.423 154.142 123.35 157.032 127.203C158.317 129.13 159.28 131.378 160.244 133.947C162.171 132.984 164.74 132.02 166.988 130.736C166.988 128.809 166.666 126.882 166.345 124.634C166.345 123.35 166.988 122.707 168.272 122.707C171.162 122.707 173.41 123.35 175.016 124.634C175.658 125.276 175.979 125.919 176.3 126.561C180.475 124.634 184.971 122.707 189.788 120.459C191.072 119.496 191.393 119.817 191.393 120.138ZM161.528 157.068C163.776 151.609 165.703 146.15 166.666 140.691C164.418 141.975 162.171 143.26 160.244 144.544C156.711 150.967 155.106 154.178 155.106 154.178C155.106 156.105 156.069 157.389 158.317 157.711C158.959 158.032 159.923 158.353 160.886 158.674C160.886 157.711 161.207 157.389 161.528 157.068ZM219.011 78.0703H218.368C212.588 78.3914 208.413 78.7125 206.165 78.7125C207.129 80.3182 208.092 82.5661 208.734 84.814C209.377 87.0619 210.019 88.9887 210.34 90.9155C212.909 90.2732 215.799 89.631 218.689 88.3464V78.0703H219.011ZM219.011 106.33V97.6592C217.726 97.9803 217.084 97.9803 216.12 97.9803C214.515 97.9803 212.909 97.6592 211.946 97.3381C212.267 98.6226 212.267 100.228 212.267 101.192C212.267 103.761 211.946 106.009 211.946 107.935C214.515 107.293 216.763 106.972 219.011 106.33ZM228.966 104.082C235.388 102.797 239.563 102.155 241.169 101.834C241.811 101.834 242.453 102.155 243.095 102.155C244.38 96.6958 245.022 89.631 245.022 80.6393C244.701 78.7125 243.095 77.428 239.563 77.428C236.994 77.428 233.783 77.428 230.571 77.428L230.25 84.814C231.214 84.814 232.498 84.4929 233.783 84.4929C238.278 84.4929 240.526 86.0985 240.526 88.9887C240.526 91.8789 237.636 93.8057 231.856 95.4113C230.892 95.7324 230.25 96.0536 229.608 96.0536L228.966 104.082ZM249.197 137.8C246.949 135.874 245.986 134.589 245.986 134.589C243.417 137.8 241.49 140.048 239.884 141.654C242.774 141.012 245.986 140.048 250.16 138.764C249.518 138.443 249.197 138.122 249.197 137.8Z" fill="white"/>
<path d="M335.902 183.401C335.581 186.291 333.654 187.576 330.122 187.576C314.065 187.576 298.33 191.429 283.879 198.494C276.172 202.348 269.428 204.274 263.969 204.596C260.757 204.596 258.188 203.953 255.94 202.669C253.371 202.027 252.408 201.063 252.087 200.1C252.087 199.136 252.729 198.494 254.335 198.494C261.079 198.494 271.355 194.641 285.163 186.933C299.614 179.226 312.138 175.052 322.414 174.73C331.085 174.73 335.902 177.621 335.902 183.401ZM291.586 228.68C291.265 228.038 289.98 227.717 288.054 226.754C286.769 226.432 286.127 226.111 286.127 225.79C285.806 224.184 286.127 223.542 287.732 223.221C294.476 222.258 300.578 221.937 306.358 222.258C312.459 222.9 315.671 224.184 316.313 226.111C317.276 228.68 315.671 229.965 313.102 230.607C301.862 232.534 292.87 229.644 291.586 228.68ZM326.91 204.596C326.91 208.128 323.378 210.697 316.634 212.624C307.321 214.551 300.578 215.514 297.366 215.514C294.155 215.514 291.586 214.872 288.696 213.908C286.127 212.624 284.521 211.982 284.521 211.018C284.521 210.376 285.484 209.734 287.732 209.413C290.944 208.77 296.082 207.165 302.504 204.274C306.679 202.027 312.459 200.742 319.203 200.742C324.341 200.742 326.91 202.348 326.91 204.596ZM319.203 149.04C325.947 151.609 329.479 155.142 329.479 158.995C329.479 162.849 327.553 164.775 324.02 164.775C314.386 164.775 307.964 165.418 305.073 167.023C303.468 167.987 302.183 168.629 300.899 168.629V167.023C303.468 162.849 304.752 159.316 304.752 156.747C304.752 155.463 302.504 153.536 298.009 150.646C295.439 149.04 294.476 148.077 294.476 147.756C294.476 145.829 295.118 144.865 297.045 144.865C305.073 145.186 312.459 146.471 319.203 149.04ZM409.12 170.556C408.798 176.657 401.734 185.97 387.925 198.173C390.494 199.779 391.779 201.705 391.779 204.596C391.779 207.486 389.21 209.734 383.75 211.018C380.218 212.303 376.685 213.266 373.474 213.908C371.868 214.229 370.905 214.551 369.942 214.551C369.621 216.156 369.299 217.762 368.657 219.689C366.088 224.827 364.482 230.286 363.519 236.709C362.235 243.773 361.592 249.554 361.592 254.371C361.592 272.996 369.621 281.988 386.319 281.988C398.522 281.988 408.477 279.419 415.863 273.96C422.928 268.822 426.461 262.72 426.461 255.655L425.497 247.627C425.497 246.664 425.818 246.021 426.461 246.021C426.782 246.021 427.745 246.664 428.387 247.948C432.883 255.976 435.131 263.683 435.131 271.069C435.131 278.134 431.278 283.915 423.892 288.089C417.469 292.264 407.835 294.191 394.669 294.191C376.364 294.191 364.804 291.622 359.344 286.484C352.601 280.382 349.389 270.427 349.389 255.976C349.389 252.123 350.032 245.058 351.637 234.461C353.243 224.185 354.206 218.404 354.206 217.12C354.206 215.514 353.243 213.587 351.316 211.66C349.389 210.055 348.747 208.449 348.747 207.165C348.747 201.384 351.637 198.494 358.381 198.494C359.344 198.494 359.987 198.815 360.629 198.815C360.629 198.815 374.438 183.401 377.649 180.19C380.86 176.978 383.75 171.519 383.75 171.519C383.75 171.198 385.677 167.987 381.824 167.987C370.905 167.987 359.666 166.06 357.096 164.133C352.28 160.601 350.032 157.389 350.995 154.82C351.637 153.857 353.243 153.536 356.133 154.178C377.97 155.463 385.998 156.747 392.742 156.426C403.66 156.426 409.12 161.243 409.12 170.556Z" fill="white"/>
</svg>
